Using schrute
…
If we want to analyze the entire data set, we need to remove some stop words first:

stop_words <- tidytext::stop_words

tidy.token.mydata <- token.mydata %>%
  dplyr::anti_join(stop_words, by = "word")

And then see what the most common words are:

tidy.token.mydata %>%
  dplyr::count(word, sort = TRUE) 
#> # A tibble: 19,041 x 2
#>    word        n
#>    <chr>   <int>
#>  1 yeah     2928
#>  2 hey      2231
#>  3 michael  1859
#>  4 uh       1458
#>  5 gonna    1398
#>  6 dwight   1339
#>  7 jim      1168
#>  8 time     1146
#>  9 pam      1044
#> 10 guys      945
#> # … with 19,031 more rows
…
